[
    {
        "Estudiante": 1701527896,
        "Materia Disponible": [
            {
                "Codigo": "G8F0055",
                "Veces Cursada": 1
            },
            {
                "Codigo": "G7F0047",
                "Veces Cursada": 2
            },
            {
                "Codigo": "G7F0046",
                "Veces Cursada": 0
            },
            {
                "Codigo": "G8E0156",
                "Veces Cursada": 0
            },
            {
                "Codigo": "G8F0067",
                "Veces Cursada": 0
            },
            {
                "Codigo": "G8F0034",
                "Veces Cursada": 0
            },
            {
                "Codigo": "G8F0072",
                "Veces Cursada": 3
            },
            {
                "Codigo": "G8F0051",
                "Veces Cursada": 5
            },
            {
                "Codigo": "G8F0078",
                "Veces Cursada": 0
            }
        ]
    },
    {
        "Estudiante": 1701527894,
        "Materia Disponible": [
            {
                "Codigo": "G8F0179",
                "Veces Cursada": 1
            },
            {
                "Codigo": "G8F0060",
                "Veces Cursada": 2
            },
            {
                "Codigo": "G8F0079",
                "Veces Cursada": 0
            },
            {
                "Codigo": "G8F0074",
                "Veces Cursada": 0
            },
            {
                "Codigo": "G8F0064",
                "Veces Cursada": 1
            },
            {
                "Codigo": "G8F0071",
                "Veces Cursada": 1
            },
            {
                "Codigo": "G8F0070",
                "Veces Cursada": 0
            },
            {
                "Codigo": "G8F0223",
                "Veces Cursada": 0
            },
            {
                "Codigo": "G8F0080",
                "Veces Cursada": 0
            },
            {
                "Codigo": "G6E0089",
                "Veces Cursada": 0
            }
        ]
    },
    {
        "Estudiante": 170131587,
        "Materia Disponible": [
            {
                "Codigo": "G6K0801",
                "Veces Cursada": 3
            },
            {
                "Codigo": "G7E0022",
                "Veces Cursada": 5
            },
            {
                "Codigo": "G7E0018",
                "Veces Cursada": 0
            },
            {
                "Codigo": "G8F0048",
                "Veces Cursada": 1
            },
            {
                "Codigo": "G7E0032",
                "Veces Cursada": 2
            },
            {
                "Codigo": "G5F0292",
                "Veces Cursada": 1
            },
            {
                "Codigo": "G6E0088",
                "Veces Cursada": 0
            },
            {
                "Codigo": "G7E0019",
                "Veces Cursada": 0
            },
            {
                "Codigo": "G8F0046",
                "Veces Cursada": 1
            },
            {
                "Codigo": "G8F0054",
                "Veces Cursada": 0
            }
        ]
    },
    {
        "Estudiante": 1701388868,
        "Materia Disponible": [
            {
                "Codigo": "G8F0048",
                "Veces Cursada": 3
            },
            {
                "Codigo": "G7E0032",
                "Veces Cursada": 3
            },
            {
                "Codigo": "G5F0292",
                "Veces Cursada": 1
            },
            {
                "Codigo": "G6E0088",
                "Veces Cursada": 3
            },
            {
                "Codigo": "G7E0019",
                "Veces Cursada": 0
            },
            {
                "Codigo": "G8F0046",
                "Veces Cursada": 2
            },
            {
                "Codigo": "G8F0054",
                "Veces Cursada": 0
            },
            {
                "Codigo": "G7H0127",
                "Veces Cursada": 3
            }
        ]
    },
    {
        "Estudiante": 1701445860,
        "Materia Disponible": [
            {
                "Codigo": "G8F0048",
                "Veces Cursada": 3
            },
            {
                "Codigo": "G7E0032",
                "Veces Cursada": 1
            },
            {
                "Codigo": "G5F0292",
                "Veces Cursada": 3
            },
            {
                "Codigo": "G6E0088",
                "Veces Cursada": 0
            },
            {
                "Codigo": "G7E0019",
                "Veces Cursada": 1
            },
            {
                "Codigo": "G8F0046",
                "Veces Cursada": 2
            },
            {
                "Codigo": "G8F0054",
                "Veces Cursada": 2
            },
            {
                "Codigo": "G7H0127",
                "Veces Cursada": 1
            }
        ]
    },
    {
        "Estudiante": 1701556218,
        "Materia Disponible": [
            {
                "Codigo": "G7E0020",
                "Veces Cursada": 0
            },
            {
                "Codigo": "G8F0056",
                "Veces Cursada": 1
            },
            {
                "Codigo": "G8F0053",
                "Veces Cursada": 1
            },
            {
                "Codigo": "G8F0057",
                "Veces Cursada": 3
            },
            {
                "Codigo": "G7F0045",
                "Veces Cursada": 2
            },
            {
                "Codigo": "G7F0044",
                "Veces Cursada": 2
            },
            {
                "Codigo": "G6E0096",
                "Veces Cursada": 3
            },
            {
                "Codigo": "G7E0021",
                "Veces Cursada": 3
            },
            {
                "Codigo": "G8F0050",
                "Veces Cursada": 1
            }
        ]
    },
    {
        "Estudiante": 1701785175,
        "Materia Disponible": [
            {
                "Codigo": "G7F0044",
                "Veces Cursada": 0
            },
            {
                "Codigo": "G6E0096",
                "Veces Cursada": 2
            },
            {
                "Codigo": "G7E0021",
                "Veces Cursada": 2
            },
            {
                "Codigo": "G8F0066",
                "Veces Cursada": 3
            },
            {
                "Codigo": "G8F0063",
                "Veces Cursada": 0
            },
            {
                "Codigo": "G8F0062",
                "Veces Cursada": 1
            },
            {
                "Codigo": "G8F0055",
                "Veces Cursada": 1
            },
            {
                "Codigo": "G8E0156",
                "Veces Cursada": 2
            },
            {
                "Codigo": "G8F0067",
                "Veces Cursada": 1
            },
            {
                "Codigo": "G8F0034",
                "Veces Cursada": 1
            }
        ]
    },
    {
        "Estudiante": 1701335947,
        "Materia Disponible": [
            {
                "Codigo": "G8F0079",
                "Veces Cursada": 0
            },
            {
                "Codigo": "G8F0074",
                "Veces Cursada": 1
            },
            {
                "Codigo": "G8F0064",
                "Veces Cursada": 1
            },
            {
                "Codigo": "G8F0071",
                "Veces Cursada": 0
            },
            {
                "Codigo": "G8F0070",
                "Veces Cursada": 3
            },
            {
                "Codigo": "G8F0263",
                "Veces Cursada": 3
            },
            {
                "Codigo": "G8F0264",
                "Veces Cursada": 0
            }
        ]
    },
    {
        "Estudiante": 1701673911,
        "Materia Disponible": [
            {
                "Codigo": "G8F0025",
                "Veces Cursada": 3
            },
            {
                "Codigo": "G8F0043",
                "Veces Cursada": 0
            },
            {
                "Codigo": "G8F0145",
                "Veces Cursada": 3
            },
            {
                "Codigo": "G8F0077",
                "Veces Cursada": 3
            },
            {
                "Codigo": "G8F0068",
                "Veces Cursada": 0
            },
            {
                "Codigo": "G8F0059",
                "Veces Cursada": 1
            },
            {
                "Codigo": "G8F0058",
                "Veces Cursada": 2
            },
            {
                "Codigo": "G8F0179",
                "Veces Cursada": 1
            }
        ]
    },
    {
        "Estudiante": 1701691460,
        "Materia Disponible": [
            {
                "Codigo": "G8F0060",
                "Veces Cursada": 1
            },
            {
                "Codigo": "G7E0020",
                "Veces Cursada": 3
            },
            {
                "Codigo": "G8F0056",
                "Veces Cursada": 3
            },
            {
                "Codigo": "G8F0053",
                "Veces Cursada": 2
            },
            {
                "Codigo": "G8F0057",
                "Veces Cursada": 0
            },
            {
                "Codigo": "G7F0045",
                "Veces Cursada": 1
            },
            {
                "Codigo": "G7F0044",
                "Veces Cursada": 0
            },
            {
                "Codigo": "G6E0096",
                "Veces Cursada": 0
            }
        ]
    },
    {
        "Estudiante": 1701391520,
        "Materia Disponible": [
            {
                "Codigo": "G8F0062",
                "Veces Cursada": 3
            },
            {
                "Codigo": "G8F0055",
                "Veces Cursada": 3
            },
            {
                "Codigo": "G7F0047",
                "Veces Cursada": 2
            },
            {
                "Codigo": "G7F0046",
                "Veces Cursada": 3
            },
            {
                "Codigo": "G8E0156",
                "Veces Cursada": 0
            },
            {
                "Codigo": "G8F0067",
                "Veces Cursada": 1
            },
            {
                "Codigo": "G8F0034",
                "Veces Cursada": 3
            }
        ]
    },
    {
        "Estudiante": 1701708091,
        "Materia Disponible": [
            {
                "Codigo": "G8F0078",
                "Veces Cursada": 2
            },
            {
                "Codigo": "G8F0077",
                "Veces Cursada": 0
            },
            {
                "Codigo": "G8F0068",
                "Veces Cursada": 3
            },
            {
                "Codigo": "G8F0059",
                "Veces Cursada": 2
            },
            {
                "Codigo": "G8F0058",
                "Veces Cursada": 0
            },
            {
                "Codigo": "G8F0179",
                "Veces Cursada": 3
            },
            {
                "Codigo": "G6K0801",
                "Veces Cursada": 2
            },
            {
                "Codigo": "G7E0022",
                "Veces Cursada": 1
            },
            {
                "Codigo": "G7E0018",
                "Veces Cursada": 2
            },
            {
                "Codigo": "G8F0048",
                "Veces Cursada": 3
            }
        ]
    },
    {
        "Estudiante": 1701278994,
        "Materia Disponible": [
            {
                "Codigo": "G7E0032",
                "Veces Cursada": 2
            },
            {
                "Codigo": "G5F0292",
                "Veces Cursada": 1
            },
            {
                "Codigo": "G6E0088",
                "Veces Cursada": 1
            },
            {
                "Codigo": "G7E0019",
                "Veces Cursada": 2
            },
            {
                "Codigo": "G8F0046",
                "Veces Cursada": 2
            },
            {
                "Codigo": "G8F0054",
                "Veces Cursada": 1
            },
            {
                "Codigo": "G7H0127",
                "Veces Cursada": 1
            },
            {
                "Codigo": "G7F0043",
                "Veces Cursada": 0
            },
            {
                "Codigo": "G8F0050",
                "Veces Cursada": 3
            },
            {
                "Codigo": "G7E0038",
                "Veces Cursada": 2
            }
        ]
    },
    {
        "Estudiante": 1701635508,
        "Materia Disponible": [
            {
                "Codigo": "G7E0020",
                "Veces Cursada": 1
            },
            {
                "Codigo": "G8F0056",
                "Veces Cursada": 2
            },
            {
                "Codigo": "G8F0053",
                "Veces Cursada": 1
            },
            {
                "Codigo": "G8F0057",
                "Veces Cursada": 0
            },
            {
                "Codigo": "G7F0045",
                "Veces Cursada": 2
            },
            {
                "Codigo": "G7F0044",
                "Veces Cursada": 2
            },
            {
                "Codigo": "G6E0096",
                "Veces Cursada": 2
            }
        ]
    },
    {
        "Estudiante": 1701732870,
        "Materia Disponible": [
            {
                "Codigo": "G7E0021",
                "Veces Cursada": 2
            },
            {
                "Codigo": "G8F0066",
                "Veces Cursada": 1
            },
            {
                "Codigo": "G8F0063",
                "Veces Cursada": 2
            },
            {
                "Codigo": "G8F0062",
                "Veces Cursada": 1
            },
            {
                "Codigo": "G8F0055",
                "Veces Cursada": 1
            },
            {
                "Codigo": "G7F0047",
                "Veces Cursada": 0
            },
            {
                "Codigo": "G7F0046",
                "Veces Cursada": 2
            },
            {
                "Codigo": "G8E0156",
                "Veces Cursada": 1
            }
        ]
    },
    {
        "Estudiante": 1701442794,
        "Materia Disponible": [
            {
                "Codigo": "G8F0067",
                "Veces Cursada": 2
            },
            {
                "Codigo": "G8F0034",
                "Veces Cursada": 3
            },
            {
                "Codigo": "G8F0072",
                "Veces Cursada": 1
            },
            {
                "Codigo": "G8F0051",
                "Veces Cursada": 0
            },
            {
                "Codigo": "G8F0078",
                "Veces Cursada": 1
            },
            {
                "Codigo": "G8F0077",
                "Veces Cursada": 1
            }
        ]
    },
    {
        "Estudiante": 1701185268,
        "Materia Disponible": [
            {
                "Codigo": "G8F0068",
                "Veces Cursada": 3
            },
            {
                "Codigo": "G8F0059",
                "Veces Cursada": 1
            },
            {
                "Codigo": "G8F0058",
                "Veces Cursada": 3
            },
            {
                "Codigo": "G8F0179",
                "Veces Cursada": 2
            },
            {
                "Codigo": "G8F0060",
                "Veces Cursada": 2
            },
            {
                "Codigo": "G8F0079",
                "Veces Cursada": 1
            },
            {
                "Codigo": "G8F0074",
                "Veces Cursada": 3
            },
            {
                "Codigo": "G8F0064",
                "Veces Cursada": 2
            },
            {
                "Codigo": "G8F0071",
                "Veces Cursada": 0
            }
        ]
    },
    {
        "Estudiante": 1701347219,
        "Materia Disponible": [
            {
                "Codigo": "G8F0070",
                "Veces Cursada": 0
            },
            {
                "Codigo": "G8F0223",
                "Veces Cursada": 3
            },
            {
                "Codigo": "G8F0080",
                "Veces Cursada": 3
            },
            {
                "Codigo": "G6E0089",
                "Veces Cursada": 1
            },
            {
                "Codigo": "G8F0075",
                "Veces Cursada": 3
            },
            {
                "Codigo": "G8F0065",
                "Veces Cursada": 1
            },
            {
                "Codigo": "G8F0181",
                "Veces Cursada": 3
            },
            {
                "Codigo": "G8F0182",
                "Veces Cursada": 2
            },
            {
                "Codigo": "G8F0070",
                "Veces Cursada": 0
            },
            {
                "Codigo": "G8F0223",
                "Veces Cursada": 0
            }
        ]
    },
    {
        "Estudiante": 1701241671,
        "Materia Disponible": [
            {
                "Codigo": "G8F0080",
                "Veces Cursada": 0
            },
            {
                "Codigo": "G6E0089",
                "Veces Cursada": 0
            },
            {
                "Codigo": "G8F0217",
                "Veces Cursada": 1
            },
            {
                "Codigo": "G8F0172",
                "Veces Cursada": 0
            },
            {
                "Codigo": "G8F0263",
                "Veces Cursada": 0
            },
            {
                "Codigo": "G8F0264",
                "Veces Cursada": 1
            },
            {
                "Codigo": "G8F0265",
                "Veces Cursada": 3
            },
            {
                "Codigo": "G8F0274",
                "Veces Cursada": 3
            }
        ]
    },
    {
        "Estudiante": 1701728549,
        "Materia Disponible": [
            {
                "Codigo": "G8F0146",
                "Veces Cursada": 1
            },
            {
                "Codigo": "G8F0217",
                "Veces Cursada": 2
            },
            {
                "Codigo": "G8F0214",
                "Veces Cursada": 3
            },
            {
                "Codigo": "G8F0215",
                "Veces Cursada": 3
            },
            {
                "Codigo": "G8F0219",
                "Veces Cursada": 2
            },
            {
                "Codigo": "G8F0220",
                "Veces Cursada": 2
            },
            {
                "Codigo": "G8F0263",
                "Veces Cursada": 3
            },
            {
                "Codigo": "G8F0264",
                "Veces Cursada": 1
            },
            {
                "Codigo": "G8F0265",
                "Veces Cursada": 3
            }
        ]
    },
    {
        "Estudiante": 1701612712,
        "Materia Disponible": [
            {
                "Codigo": "G8F0274",
                "Veces Cursada": 1
            },
            {
                "Codigo": "G8F0146",
                "Veces Cursada": 2
            },
            {
                "Codigo": "G8F0217",
                "Veces Cursada": 1
            },
            {
                "Codigo": "G8F0172",
                "Veces Cursada": 1
            },
            {
                "Codigo": "G8F0074",
                "Veces Cursada": 2
            },
            {
                "Codigo": "G8F0064",
                "Veces Cursada": 2
            },
            {
                "Codigo": "G8F0071",
                "Veces Cursada": 3
            },
            {
                "Codigo": "G8F0070",
                "Veces Cursada": 3
            },
            {
                "Codigo": "G8F0223",
                "Veces Cursada": 3
            },
            {
                "Codigo": "G8F0080",
                "Veces Cursada": 1
            }
        ]
    },
    {
        "Estudiante": 1701441628,
        "Materia Disponible": [
            {
                "Codigo": "G6E0089",
                "Veces Cursada": 2
            },
            {
                "Codigo": "G8F0075",
                "Veces Cursada": 3
            },
            {
                "Codigo": "G8F0065",
                "Veces Cursada": 3
            },
            {
                "Codigo": "G8F0181",
                "Veces Cursada": 0
            },
            {
                "Codigo": "G8F0182",
                "Veces Cursada": 2
            },
            {
                "Codigo": "G8F0059",
                "Veces Cursada": 0
            },
            {
                "Codigo": "G8F0058",
                "Veces Cursada": 3
            }
        ]
    },
    {
        "Estudiante": 1701677994,
        "Materia Disponible": [
            {
                "Codigo": "G7E0017",
                "Veces Cursada": 2
            },
            {
                "Codigo": "G8F0052",
                "Veces Cursada": 2
            },
            {
                "Codigo": "G7E0015",
                "Veces Cursada": 0
            },
            {
                "Codigo": "G8F0045",
                "Veces Cursada": 2
            },
            {
                "Codigo": "G8F0047",
                "Veces Cursada": 0
            },
            {
                "Codigo": "G6K0801",
                "Veces Cursada": 2
            },
            {
                "Codigo": "G7E0022",
                "Veces Cursada": 1
            },
            {
                "Codigo": "G7E0018",
                "Veces Cursada": 0
            }
        ]
    },
    {
        "Estudiante": 1701622242,
        "Materia Disponible": [
            {
                "Codigo": "G8F0048",
                "Veces Cursada": 0
            },
            {
                "Codigo": "G7E0032",
                "Veces Cursada": 2
            },
            {
                "Codigo": "G5F0292",
                "Veces Cursada": 1
            },
            {
                "Codigo": "G6E0088",
                "Veces Cursada": 3
            },
            {
                "Codigo": "G7E0019",
                "Veces Cursada": 0
            },
            {
                "Codigo": "G8F0046",
                "Veces Cursada": 3
            },
            {
                "Codigo": "G8F0054",
                "Veces Cursada": 1
            },
            {
                "Codigo": "G7H0127",
                "Veces Cursada": 2
            },
            {
                "Codigo": "G7F0043",
                "Veces Cursada": 2
            },
            {
                "Codigo": "G8F0050",
                "Veces Cursada": 2
            }
        ]
    },
    {
        "Estudiante": 1701349981,
        "Materia Disponible": [
            {
                "Codigo": "G7E0038",
                "Veces Cursada": 3
            },
            {
                "Codigo": "G7E0020",
                "Veces Cursada": 0
            },
            {
                "Codigo": "G8F0056",
                "Veces Cursada": 3
            },
            {
                "Codigo": "G8F0053",
                "Veces Cursada": 1
            },
            {
                "Codigo": "G8F0057",
                "Veces Cursada": 0
            },
            {
                "Codigo": "G7F0045",
                "Veces Cursada": 0
            },
            {
                "Codigo": "G7F0044",
                "Veces Cursada": 2
            },
            {
                "Codigo": "G6E0096",
                "Veces Cursada": 0
            },
            {
                "Codigo": "G7E0021",
                "Veces Cursada": 3
            },
            {
                "Codigo": "G8F0066",
                "Veces Cursada": 1
            }
        ]
    },
    {
        "Estudiante": 1701291998,
        "Materia Disponible": [
            {
                "Codigo": "G8F0063",
                "Veces Cursada": 1
            },
            {
                "Codigo": "G8F0062",
                "Veces Cursada": 3
            },
            {
                "Codigo": "G8F0055",
                "Veces Cursada": 0
            },
            {
                "Codigo": "G7F0047",
                "Veces Cursada": 1
            },
            {
                "Codigo": "G7F0046",
                "Veces Cursada": 3
            },
            {
                "Codigo": "G8E0156",
                "Veces Cursada": 2
            },
            {
                "Codigo": "G8F0067",
                "Veces Cursada": 0
            },
            {
                "Codigo": "G8F0034",
                "Veces Cursada": 0
            },
            {
                "Codigo": "G8F0072",
                "Veces Cursada": 3
            },
            {
                "Codigo": "G8F0051",
                "Veces Cursada": 1
            }
        ]
    },
    {
        "Estudiante": 1701774003,
        "Materia Disponible": [
            {
                "Codigo": "G8F0078",
                "Veces Cursada": 2
            },
            {
                "Codigo": "G8F0077",
                "Veces Cursada": 1
            },
            {
                "Codigo": "G8F0068",
                "Veces Cursada": 2
            },
            {
                "Codigo": "G8F0059",
                "Veces Cursada": 0
            },
            {
                "Codigo": "G8F0058",
                "Veces Cursada": 2
            },
            {
                "Codigo": "G8F0179",
                "Veces Cursada": 2
            },
            {
                "Codigo": "G8F0060",
                "Veces Cursada": 3
            },
            {
                "Codigo": "G8F0079",
                "Veces Cursada": 2
            },
            {
                "Codigo": "G8F0261",
                "Veces Cursada": 0
            },
            {
                "Codigo": "G8F0262",
                "Veces Cursada": 3
            }
        ]
    }
]
